Prac2/Telecoms prac2/Screen Shots/ALL0014/F0014MTH.CSV

Record Length,1.024000e+03,,          0.00000, -20.56910,
Sample Interval,1.233033e+01,,         12.33033, -18.16910,
Trigger Point,0.000000000000e+00,,         24.66067, -16.16910,
,,,         36.99100, -16.96910,
,,,         49.32134, -18.96910,
,,,         61.65167, -20.16910,
Source,MATH,,         73.98201, -20.16910,
Vertical Units,dB,,         86.31234, -28.16910,
Vertical Scale,1.000000e+01,,         98.64268, -20.56910,
Vertical Offset,0.000000e+00,,        110.97301, -17.36910,
Horizontal Units,Hz,,        123.30335, -21.36910,
Horizontal Scale,1.262626e+03,,        135.63368, -23.36910,
Pt Fmt,Y,,        147.96402, -20.56910,
Yzero,-2.096910e+01,,        160.29435, -22.16910,
Probe Atten,1.000000e+00,,        172.62468, -20.16910,
Model Number,TDS2001C,,        184.95502, -14.16910,
Serial Number,C030620,,        197.28535, -18.56910,
Firmware Version,FV:v24.26,,        209.61569, -15.76910,
,,,221.94602, -17.36910,
,,,234.27635, -18.16910,
,,,246.60668, -16.16910,
,,,258.93701, -21.76910,
,,,271.26734, -22.96910,
,,,283.59767, -29.76910,
,,,295.92800, -19.76910,
,,,308.25833, -23.76910,
,,,320.58866, -29.76910,
,,,332.91899, -20.16910,
,,,345.24932, -17.36910,
,,,357.57965, -18.16910,
,,,369.90998, -16.56910,
,,,382.24031, -16.96910,
,,,394.57064, -33.36910,
,,,406.90097, -19.36910,
,,,419.23130, -17.36910,
,,,431.56163, -20.56910,
,,,443.89196, -21.36910,
,,,456.22229, -17.36910,
,,,468.55262, -17.36910,
,,,480.88295, -17.36910,
,,,493.21328, -20.16910,
,,,505.54361, -18.96910,
,,,517.87394, -15.36910,
,,,530.20427, -17.36910,
,,,542.53460, -18.16910,
,,,554.86493, -17.76910,
,,,567.19526, -18.16910,
,,,579.52559, -16.16910,
,,,591.85592, -16.96910,
,,,604.18625, -22.16910,
,,,616.51658, -18.16910,
,,,628.84691, -17.36910,
,,,641.17724, -17.76910,
,,,653.50757, -19.36910,
,,,665.83790, -26.96910,
,,,678.16823, -17.76910,
,,,690.49856, -20.16910,
,,,702.82889, -25.36910,
,,,715.15922, -20.96910,
,,,727.48955, -17.76910,
,,,739.81988, -18.96910,
,,,752.15021, -19.36910,
,,,764.48054, -19.76910,
,,,776.81087, -28.16910,
,,,789.14120, -28.16910,
,,,801.47153, -22.56910,
,,,813.80186, -25.36910,
,,,826.13219, -26.96910,
,,,838.46252, -26.16910,
,,,850.79285, -19.76910,
,,,863.12318, -19.36910,
,,,875.45351, -20.96910,
,,,887.78384, -18.16910,
,,,900.11417, -20.56910,
,,,912.44450, -18.56910,
,,,924.77483, -18.16910,
,,,937.10516, -34.96910,
,,,949.43549, -22.96910,
,,,961.76582, -25.76910,
,,,974.09615, -26.16910,
,,,986.42648, -21.76910,
,,,998.75681, -21.36910,
,,,1011.08714, -32.56910,
,,,1023.41747, -24.96910,
,,,1035.74780, -24.16910,
,,,1048.07813, -22.56910,
,,,1060.40846, -22.96910,
,,,1072.73879, -18.96910,
,,,1085.06912, -19.76910,
,,,1097.39945, -19.36910,
,,,1109.72978, -19.76910,
,,,1122.06011, -19.76910,
,,,1134.39044, -19.76910,
,,,1146.72077, -24.16910,
,,,1159.05110, -23.76910,
,,,1171.38143, -25.36910,
,,,1183.71176, -27.76910,
,,,1196.04209, -30.96910,
,,,1208.37242, -22.56910,
,,,1220.70275, -24.56910,
,,,1233.03308, -28.96910,
,,,1245.36341, -27.76910,
,,,1257.69374, -25.76910,
,,,1270.02407, -40.96910,
,,,1282.35440, -20.56910,
,,,1294.68473, -22.56910,
,,,1307.01506, -23.36910,
,,,1319.34539, -22.56910,
,,,1331.67572, -25.36910,
,,,1344.00605, -22.96910,
,,,1356.33638, -24.96910,
,,,1368.66671, -30.96910,
,,,1380.99704, -33.36910,
,,,1393.32737, -28.96910,
,,,1405.65770, -28.56910,
,,,1417.98803, -34.16910,
,,,1430.31836, -32.16910,
,,,1442.64869, -25.36910,
,,,1454.97902, -25.36910,
,,,1467.30935, -25.36910,
,,,1479.63968, -24.16910,
,,,1491.97001, -30.16910,
,,,1504.30034, -30.16910,
,,,1516.63067, -26.96910,
,,,1528.96100, -25.76910,
,,,1541.29133, -34.96910,
,,,1553.62166, -26.96910,
,,,1565.95199, -26.16910,
,,,1578.28232, -26.16910,
,,,1590.61265, -27.76910,
,,,1602.94298, -30.96910,
,,,1615.27331, -26.16910,
,,,1627.60364, -26.16910,
,,,1639.93397, -28.16910,
,,,1652.26430, -27.76910,
,,,1664.59463, -28.56910,
,,,1676.92496, -27.76910,
,,,1689.25529, -26.56910,
,,,1701.58562, -31.76910,
,,,1713.91595, -31.36910,
,,,1726.24628, -28.96910,
,,,1738.57661, -29.36910,
,,,1750.90694, -29.76910,
,,,1763.23727, -35.76910,
,,,1775.56760, -32.16910,
,,,1787.89793, -31.36910,
,,,1800.22826, -34.16910,
,,,1812.55859, -41.76910,
,,,1824.88892, -31.36910,
,,,1837.21925, -31.76910,
,,,1849.54958, -32.96910,
,,,1861.87991, -33.36910,
,,,1874.21024, -37.36910,
,,,1886.54057, -45.76910,
,,,1898.87090, -40.16910,
,,,1911.20123, -37.36910,
,,,1923.53156, -48.16910,
,,,1935.86189, -41.36910,
,,,1948.19222, -39.76910,
,,,1960.52255, -35.76910,
,,,1972.85288, -38.96910,
,,,1985.18321, -37.36910,
,,,1997.51354, -36.96910,
,,,2009.84387, -39.76910,
,,,2022.17420, -36.16910,
,,,2034.50453, -46.16910,
,,,2046.83486, -44.56910,
,,,2059.16519, -46.16910,
,,,2071.49552, -47.76910,
,,,2083.82585, -46.16910,
,,,2096.15618, -43.76910,
,,,2108.48651, -48.16910,
,,,2120.81684, -55.76910,
,,,2133.14717, -50.96910,
,,,2145.47750, -52.16910,
,,,2157.80783, -52.16910,
,,,2170.13816, -54.56910,
,,,2182.46849, -56.96910,
,,,2194.79882, -57.36910,
,,,2207.12915, -60.96910,
,,,2219.45948, -55.76910,
,,,2231.78981, -52.96910,
,,,2244.12014, -54.56910,
,,,2256.45047, -54.56910,
,,,2268.78080, -52.16910,
,,,2281.11113, -50.96910,
,,,2293.44146, -59.76910,
,,,2305.77179, -46.96910,
,,,2318.10212, -45.36910,
,,,2330.43245, -51.36910,
,,,2342.76278, -48.96910,
,,,2355.09311, -44.96910,
,,,2367.42344, -49.76910,
,,,2379.75377, -41.36910,
,,,2392.08410, -38.16910,
,,,2404.41443, -41.76910,
,,,2416.74476, -38.56910,
,,,2429.07509, -40.56910,
,,,2441.40542, -39.36910,
,,,2453.73575, -37.76910,
,,,2466.06608, -44.16910,
,,,2478.39641, -44.16910,
,,,2490.72674, -46.96910,
,,,2503.05707, -40.16910,
,,,2515.38740, -44.56910,
,,,2527.71773, -48.96910,
,,,2540.04806, -38.56910,
,,,2552.37839, -36.56910,
,,,2564.70872, -36.56910,
,,,2577.03905, -34.56910,
,,,2589.36938, -36.16910,
,,,2601.69971, -47.76910,
,,,2614.03004, -36.96910,
,,,2626.36037, -34.56910,
,,,2638.69070, -40.56910,
,,,2651.02103, -36.96910,
,,,2663.35136, -34.16910,
,,,2675.68169, -34.16910,
,,,2688.01202, -34.16910,
,,,2700.34235, -37.76910,
,,,2712.67268, -34.56910,
,,,2725.00301, -31.76910,
,,,2737.33334, -33.76910,
,,,2749.66367, -33.76910,
,,,2761.99400, -33.76910,
,,,2774.32433, -33.36910,
,,,2786.65466, -30.96910,
,,,2798.98499, -33.36910,
,,,2811.31532, -36.16910,
,,,2823.64565, -32.96910,
,,,2835.97598, -32.96910,
,,,2848.30631, -32.56910,
,,,2860.63664, -34.96910,
,,,2872.96697, -38.96910,
,,,2885.29730, -32.16910,
,,,2897.62763, -34.56910,
,,,2909.95796, -43.76910,
,,,2922.28829, -33.76910,
,,,2934.61862, -31.76910,
,,,2946.94895, -32.96910,
,,,2959.27928, -32.56910,
,,,2971.60961, -34.16910,
,,,2983.93994, -45.36910,
,,,2996.27027, -40.96910,
,,,3008.60060, -35.36910,
,,,3020.93093, -41.36910,
,,,3033.26126, -39.76910,
,,,3045.59159, -38.56910,
,,,3057.92192, -31.76910,
,,,3070.25225, -32.56910,
,,,3082.58258, -33.76910,
,,,3094.91291, -30.96910,
,,,3107.24324, -33.36910,
,,,3119.57357, -30.16910,
,,,3131.90390, -32.56910,
,,,3144.23423, -41.36910,
,,,3156.56456, -35.36910,
,,,3168.89489, -38.56910,
,,,3181.22522, -37.36910,
,,,3193.55555, -32.96910,
,,,3205.88588, -34.16910,
,,,3218.21621, -46.16910,
,,,3230.54654, -35.76910,
,,,3242.87687, -36.56910,
,,,3255.20720, -34.56910,
,,,3267.53753, -34.16910,
,,,3279.86786, -30.16910,
,,,3292.19819, -30.96910,
,,,3304.52852, -30.96910,
,,,3316.85885, -31.36910,
,,,3329.18918, -30.56910,
,,,3341.51951, -31.36910,
,,,3353.84984, -34.96910,
,,,3366.18017, -35.36910,
,,,3378.51050, -36.56910,
,,,3390.84083, -40.56910,
,,,3403.17116, -39.36910,
,,,3415.50149, -33.36910,
,,,3427.83182, -36.16910,
,,,3440.16215, -40.16910,
,,,3452.49248, -37.76910,
,,,3464.82281, -36.96910,
,,,3477.15314, -42.96910,
,,,3489.48347, -30.56910,
,,,3501.81380, -34.16910,
,,,3514.14413, -32.96910,
,,,3526.47446, -33.36910,
,,,3538.80479, -36.16910,
,,,3551.13512, -33.36910,
,,,3563.46545, -36.56910,
,,,3575.79578, -40.16910,
,,,3588.12611, -46.96910,
,,,3600.45644, -37.36910,
,,,3612.78677, -40.16910,
,,,3625.11710, -45.76910,
,,,3637.44743, -39.76910,
,,,3649.77776, -34.96910,
,,,3662.10809, -35.36910,
,,,3674.43842, -34.96910,
,,,3686.76875, -34.16910,
,,,3699.09908, -42.56910,
,,,3711.42941, -38.96910,
,,,3723.75974, -36.56910,
,,,3736.09007, -36.16910,
,,,3748.42040, -42.56910,
,,,3760.75073, -35.76910,
,,,3773.08106, -35.36910,
,,,3785.41139, -35.36910,
,,,3797.74172, -37.36910,
,,,3810.07205, -39.76910,
,,,3822.40238, -34.96910,
,,,3834.73271, -36.16910,
,,,3847.06304, -37.76910,
,,,3859.39337, -36.96910,
,,,3871.72370, -37.76910,
,,,3884.05403, -36.16910,
,,,3896.38436, -36.16910,
,,,3908.71469, -41.36910,
,,,3921.04502, -38.96910,
,,,3933.37535, -38.16910,
,,,3945.70568, -38.56910,
,,,3958.03601, -38.56910,
,,,3970.36634, -46.96910,
,,,3982.69667, -39.76910,
,,,3995.02700, -40.56910,
,,,4007.35733, -43.76910,
,,,4019.68766, -45.76910,
,,,4032.01799, -39.36910,
,,,4044.34832, -40.56910,
,,,4056.67865, -41.36910,
,,,4069.00898, -42.16910,
,,,4081.33931, -49.76910,
,,,4093.66964, -52.96910,
,,,4105.99997, -46.16910,
,,,4118.33030, -46.96910,
,,,4130.66063, -54.96910,
,,,4142.99096, -50.96910,
,,,4155.32129, -46.16910,
,,,4167.65162, -43.36910,
,,,4179.98195, -46.96910,
,,,4192.31228, -44.96910,
,,,4204.64261, -44.96910,
,,,4216.97294, -46.16910,
,,,4229.30327, -44.56910,
,,,4241.63360, -60.96910,
,,,4253.96393, -50.56910,
,,,4266.29426, -55.76910,
,,,4278.62459, -57.76910,
,,,4290.95492, -54.96910,
,,,4303.28525, -52.96910,
,,,4315.61558, -60.96910,
,,,4327.94591, -60.96910,
,,,4340.27624, -59.76910,
,,,4352.60657, -60.96910,
,,,4364.93690, -60.96910,
,,,4377.26723, -60.96910,
,,,4389.59756, -60.96910,
,,,4401.92789, -60.96910,
,,,4414.25822, -60.96910,
,,,4426.58855, -56.96910,
,,,4438.91888, -54.56910,
,,,4451.24921, -60.96910,
,,,4463.57954, -56.96910,
,,,4475.90987, -54.56910,
,,,4488.24020, -54.56910,
,,,4500.57053, -56.96910,
,,,4512.90086, -52.96910,
,,,4525.23119, -50.96910,
,,,4537.56152, -52.96910,
,,,4549.89185, -53.76910,
,,,4562.22218, -52.96910,
,,,4574.55251, -60.96910,
,,,4586.88284, -45.36910,
,,,4599.21317, -44.56910,
,,,4611.54350, -48.96910,
,,,4623.87383, -45.36910,
,,,4636.20416, -48.96910,
,,,4648.53449, -45.36910,
,,,4660.86482, -44.56910,
,,,4673.19515, -48.16910,
,,,4685.52548, -49.36910,
,,,4697.85581, -49.76910,
,,,4710.18614, -46.56910,
,,,4722.51647, -52.96910,
,,,4734.84680, -52.96910,
,,,4747.17713, -44.56910,
,,,4759.50746, -42.96910,
,,,4771.83779, -42.56910,
,,,4784.16812, -41.36910,
,,,4796.49845, -44.96910,
,,,4808.82878, -48.56910,
,,,4821.15911, -43.36910,
,,,4833.48944, -40.96910,
,,,4845.81977, -48.56910,
,,,4858.15010, -42.56910,
,,,4870.48043, -39.36910,
,,,4882.81076, -39.76910,
,,,4895.14109, -40.16910,
,,,4907.47142, -43.36910,
,,,4919.80175, -39.76910,
,,,4932.13208, -37.76910,
,,,4944.46241, -40.16910,
,,,4956.79274, -39.36910,
,,,4969.12307, -39.76910,
,,,4981.45340, -39.36910,
,,,4993.78373, -37.36910,
,,,5006.11406, -41.36910,
,,,5018.44439, -41.76910,
,,,5030.77472, -38.96910,
,,,5043.10505, -38.96910,
,,,5055.43538, -37.76910,
,,,5067.76571, -41.76910,
,,,5080.09604, -43.36910,
,,,5092.42637, -38.96910,
,,,5104.75670, -41.36910,
,,,5117.08703, -54.56910,
,,,5129.41736, -39.36910,
,,,5141.74769, -38.16910,
,,,5154.07802, -39.76910,
,,,5166.40835, -40.16910,
,,,5178.73868, -42.16910,
,,,5191.06901, -54.96910,
,,,5203.39934, -47.76910,
,,,5215.72967, -42.56910,
,,,5228.06000, -49.76910,
,,,5240.39033, -47.76910,
,,,5252.72066, -46.96910,
,,,5265.05099, -40.96910,
,,,5277.38132, -42.16910,
,,,5289.71165, -42.96910,
,,,5302.04198, -42.16910,
,,,5314.37231, -44.96910,
,,,5326.70264, -40.56910,
,,,5339.03297, -46.16910,
,,,5351.36330, -51.76910,
,,,5363.69363, -50.96910,
,,,5376.02396, -52.96910,
,,,5388.35429, -49.76910,
,,,5400.68462, -47.36910,
,,,5413.01495, -51.36910,
,,,5425.34528, -60.96910,
,,,5437.67561, -55.76910,
,,,5450.00594, -57.36910,
,,,5462.33627, -59.76910,
,,,5474.66660, -52.96910,
,,,5486.99693, -50.56910,
,,,5499.32726, -51.36910,
,,,5511.65759, -53.76910,
,,,5523.98792, -57.76910,
,,,5536.31825, -55.76910,
,,,5548.64858, -55.76910,
,,,5560.97891, -60.96910,
,,,5573.30924, -60.96910,
,,,5585.63957, -56.96910,
,,,5597.96990, -60.96910,
,,,5610.30023, -60.96910,
,,,5622.63056, -60.96910,
,,,5634.96089, -60.96910,
,,,5647.29122, -60.96910,
,,,5659.62155, -60.96910,
,,,5671.95188, -60.96910,
,,,5684.28221, -60.96910,
,,,5696.61254, -59.76910,
,,,5708.94287, -60.96910,
,,,5721.27320, -60.96910,
,,,5733.60353, -60.96910,
,,,5745.93386, -60.96910,
,,,5758.26419, -59.76910,
,,,5770.59452, -57.76910,
,,,5782.92485, -60.96910,
,,,5795.25518, -60.96910,
,,,5807.58551, -60.96910,
,,,5819.91584, -60.96910,
,,,5832.24617, -60.96910,
,,,5844.57650, -60.96910,
,,,5856.90683, -60.96910,
,,,5869.23716, -59.76910,
,,,5881.56749, -60.96910,
,,,5893.89782, -60.96910,
,,,5906.22815, -60.96910,
,,,5918.55848, -60.96910,
,,,5930.88881, -60.96910,
,,,5943.21914, -60.96910,
,,,5955.54947, -60.96910,
,,,5967.87980, -60.96910,
,,,5980.21013, -60.96910,
,,,5992.54046, -60.96910,
,,,6004.87079, -59.76910,
,,,6017.20112, -57.76910,
,,,6029.53145, -59.76910,
,,,6041.86178, -59.76910,
,,,6054.19211, -60.96910,
,,,6066.52244, -60.96910,
,,,6078.85277, -60.96910,
,,,6091.18310, -60.96910,
,,,6103.51343, -60.96910,
,,,6115.84376, -60.96910,
,,,6128.17409, -60.96910,
,,,6140.50442, -60.96910,
,,,6152.83475, -60.96910,
,,,6165.16508, -60.96910,
,,,6177.49541, -60.96910,
,,,6189.82574, -60.96910,
,,,6202.15607, -60.96910,
,,,6214.48640, -60.96910,
,,,6226.81673, -60.96910,
,,,6239.14706, -60.96910,
,,,6251.47739, -60.96910,
,,,6263.80772, -60.96910,
,,,6276.13805, -60.96910,
,,,6288.46838, -60.96910,
,,,6300.79871, -60.96910,
,,,6313.12904, -60.96910,
,,,6325.45937, -60.96910,
,,,6337.78970, -60.96910,
,,,6350.12003, -60.96910,
,,,6362.45036, -60.96910,
,,,6374.78069, -60.96910,
,,,6387.11102, -60.96910,
,,,6399.44135, -60.96910,
,,,6411.77168, -60.96910,
,,,6424.10201, -57.76910,
,,,6436.43234, -56.96910,
,,,6448.76267, -60.96910,
,,,6461.09300, -60.96910,
,,,6473.42333, -60.96910,
,,,6485.75366, -60.96910,
,,,6498.08399, -60.96910,
,,,6510.41432, -60.96910,
,,,6522.74465, -60.96910,
,,,6535.07498, -60.96910,
,,,6547.40531, -60.96910,
,,,6559.73564, -60.96910,
,,,6572.06597, -60.96910,
,,,6584.39630, -60.96910,
,,,6596.72663, -60.96910,
,,,6609.05696, -60.96910,
,,,6621.38729, -60.96910,
,,,6633.71762, -60.96910,
,,,6646.04795, -59.76910,
,,,6658.37828, -60.96910,
,,,6670.70861, -60.96910,
,,,6683.03894, -60.96910,
,,,6695.36927, -60.96910,
,,,6707.69960, -60.96910,
,,,6720.02993, -60.96910,
,,,6732.36026, -59.76910,
,,,6744.69059, -60.96910,
,,,6757.02092, -60.96910,
,,,6769.35125, -60.96910,
,,,6781.68158, -60.96910,
,,,6794.01191, -60.96910,
,,,6806.34224, -60.96910,
,,,6818.67257, -60.96910,
,,,6831.00290, -59.76910,
,,,6843.33323, -60.96910,
,,,6855.66356, -60.96910,
,,,6867.99389, -60.96910,
,,,6880.32422, -60.96910,
,,,6892.65455, -60.96910,
,,,6904.98488, -60.96910,
,,,6917.31521, -60.96910,
,,,6929.64554, -60.96910,
,,,6941.97587, -60.96910,
,,,6954.30620, -56.96910,
,,,6966.63653, -56.96910,
,,,6978.96686, -59.76910,
,,,6991.29719, -60.96910,
,,,7003.62752, -56.96910,
,,,7015.95785, -60.96910,
,,,7028.28818, -60.96910,
,,,7040.61851, -60.96910,
,,,7052.94884, -60.96910,
,,,7065.27917, -60.96910,
,,,7077.60950, -60.96910,
,,,7089.93983, -60.96910,
,,,7102.27016, -60.96910,
,,,7114.60049, -60.96910,
,,,7126.93082, -60.96910,
,,,7139.26115, -60.96910,
,,,7151.59148, -60.96910,
,,,7163.92181, -60.96910,
,,,7176.25214, -60.96910,
,,,7188.58247, -60.96910,
,,,7200.91280, -60.96910,
,,,7213.24313, -60.96910,
,,,7225.57346, -60.96910,
,,,7237.90379, -60.96910,
,,,7250.23412, -60.96910,
,,,7262.56445, -59.76910,
,,,7274.89478, -60.96910,
,,,7287.22511, -60.96910,
,,,7299.55544, -60.96910,
,,,7311.88577, -60.96910,
,,,7324.21610, -60.96910,
,,,7336.54643, -60.96910,
,,,7348.87676, -60.96910,
,,,7361.20709, -60.96910,
,,,7373.53742, -60.96910,
,,,7385.86775, -60.96910,
,,,7398.19808, -60.96910,
,,,7410.52841, -60.96910,
,,,7422.85874, -60.96910,
,,,7435.18907, -60.96910,
,,,7447.51940, -60.96910,
,,,7459.84973, -59.76910,
,,,7472.18006, -60.96910,
,,,7484.51039, -60.96910,
,,,7496.84072, -60.96910,
,,,7509.17105, -59.76910,
,,,7521.50138, -60.96910,
,,,7533.83171, -60.96910,
,,,7546.16204, -59.76910,
,,,7558.49237, -60.96910,
,,,7570.82270, -60.96910,
,,,7583.15303, -60.96910,
,,,7595.48336, -60.96910,
,,,7607.81369, -60.96910,
,,,7620.14402, -60.96910,
,,,7632.47435, -60.96910,
,,,7644.80468, -60.96910,
,,,7657.13501, -59.76910,
,,,7669.46534, -60.96910,
,,,7681.79567, -60.96910,
,,,7694.12600, -60.96910,
,,,7706.45633, -60.96910,
,,,7718.78666, -60.96910,
,,,7731.11699, -57.76910,
,,,7743.44732, -60.96910,
,,,7755.77765, -60.96910,
,,,7768.10798, -60.96910,
,,,7780.43831, -60.96910,
,,,7792.76864, -60.96910,
,,,7805.09897, -60.96910,
,,,7817.42930, -60.96910,
,,,7829.75963, -60.96910,
,,,7842.08996, -60.96910,
,,,7854.42029, -60.96910,
,,,7866.75062, -60.96910,
,,,7879.08095, -60.96910,
,,,7891.41128, -60.96910,
,,,7903.74161, -60.96910,
,,,7916.07194, -60.96910,
,,,7928.40227, -60.96910,
,,,7940.73260, -57.76910,
,,,7953.06293, -59.76910,
,,,7965.39326, -60.96910,
,,,7977.72359, -60.96910,
,,,7990.05392, -60.96910,
,,,8002.38425, -60.96910,
,,,8014.71458, -59.76910,
,,,8027.04491, -60.96910,
,,,8039.37524, -60.96910,
,,,8051.70557, -60.96910,
,,,8064.03590, -60.96910,
,,,8076.36623, -60.96910,
,,,8088.69656, -60.96910,
,,,8101.02689, -60.96910,
,,,8113.35722, -60.96910,
,,,8125.68755, -60.96910,
,,,8138.01788, -60.96910,
,,,8150.34821, -60.96910,
,,,8162.67854, -60.96910,
,,,8175.00887, -60.96910,
,,,8187.33920, -60.96910,
,,,8199.66953, -60.96910,
,,,8211.99986, -60.96910,
,,,8224.33019, -60.96910,
,,,8236.66052, -60.96910,
,,,8248.99085, -60.96910,
,,,8261.32118, -60.96910,
,,,8273.65151, -60.96910,
,,,8285.98184, -60.96910,
,,,8298.31217, -60.96910,
,,,8310.64250, -60.96910,
,,,8322.97283, -60.96910,
,,,8335.30316, -60.96910,
,,,8347.63349, -60.96910,
,,,8359.96382, -60.96910,
,,,8372.29415, -60.96910,
,,,8384.62448, -60.96910,
,,,8396.95481, -60.96910,
,,,8409.28514, -60.96910,
,,,8421.61547, -60.96910,
,,,8433.94580, -60.96910,
,,,8446.27613, -60.96910,
,,,8458.60646, -60.96910,
,,,8470.93679, -60.96910,
,,,8483.26712, -60.96910,
,,,8495.59745, -60.96910,
,,,8507.92778, -60.96910,
,,,8520.25811, -60.96910,
,,,8532.58844, -60.96910,
,,,8544.91877, -60.96910,
,,,8557.24910, -60.96910,
,,,8569.57943, -60.96910,
,,,8581.90976, -60.96910,
,,,8594.24009, -60.96910,
,,,8606.57042, -60.96910,
,,,8618.90075, -60.96910,
,,,8631.23108, -59.76910,
,,,8643.56141, -59.76910,
,,,8655.89174, -60.96910,
,,,8668.22207, -60.96910,
,,,8680.55240, -60.96910,
,,,8692.88273, -60.96910,
,,,8705.21306, -59.76910,
,,,8717.54339, -60.96910,
,,,8729.87372, -60.96910,
,,,8742.20405, -59.76910,
,,,8754.53438, -60.96910,
,,,8766.86471, -60.96910,
,,,8779.19504, -60.96910,
,,,8791.52537, -60.96910,
,,,8803.85570, -59.76910,
,,,8816.18603, -60.96910,
,,,8828.51636, -60.96910,
,,,8840.84669, -60.96910,
,,,8853.17702, -60.96910,
,,,8865.50735, -60.96910,
,,,8877.83768, -60.96910,
,,,8890.16801, -60.96910,
,,,8902.49834, -60.96910,
,,,8914.82867, -60.96910,
,,,8927.15900, -60.96910,
,,,8939.48933, -60.96910,
,,,8951.81966, -60.96910,
,,,8964.14999, -60.96910,
,,,8976.48032, -60.96910,
,,,8988.81065, -60.96910,
,,,9001.14098, -60.96910,
,,,9013.47131, -60.96910,
,,,9025.80164, -59.76910,
,,,9038.13197, -59.76910,
,,,9050.46230, -59.76910,
,,,9062.79263, -60.96910,
,,,9075.12296, -60.96910,
,,,9087.45329, -60.96910,
,,,9099.78362, -60.96910,
,,,9112.11395, -59.76910,
,,,9124.44428, -60.96910,
,,,9136.77461, -60.96910,
,,,9149.10494, -60.96910,
,,,9161.43527, -60.96910,
,,,9173.76560, -60.96910,
,,,9186.09593, -60.96910,
,,,9198.42626, -60.96910,
,,,9210.75659, -60.96910,
,,,9223.08692, -60.96910,
,,,9235.41725, -60.96910,
,,,9247.74758, -60.96910,
,,,9260.07791, -60.96910,
,,,9272.40824, -60.96910,
,,,9284.73857, -60.96910,
